code/Pipeline.vcd
$date
	Tue Jan  1 09:45:23 2019
$end
$version
	Icarus Verilog
$end
$timescale
	1s
$end
$scope module TestBench $end
$var wire 1 ! MEM_wen $end
$var wire 256 " MEM_wdata [255:0] $end
$var wire 1 # MEM_ren $end
$var wire 1 $ MEM_ready $end
$var wire 256 % MEM_rdata [255:0] $end
$var wire 27 & MEM_addr [26:0] $end
$var reg 1 ' Clk $end
$var reg 1 ( Start $end
$var reg 27 ) address [26:0] $end
$var reg 1 * flag $end
$var reg 5 + index [4:0] $end
$var reg 22 , tag [21:0] $end
$var integer 32 - counter [31:0] $end
$var integer 32 . i [31:0] $end
$var integer 32 / outfile [31:0] $end
$var integer 32 0 outfile2 [31:0] $end
$scope module CPU $end
$var wire 1 1 IDATA_ren $end
$var wire 1 ' clk_i $end
$var wire 1 ( start_i $end
$var wire 1 2 proc_stall $end
$var wire 1 ! MEM_wen $end
$var wire 256 3 MEM_wdata [255:0] $end
$var wire 1 # MEM_ren $end
$var wire 1 $ MEM_ready $end
$var wire 256 4 MEM_rdata [255:0] $end
$var wire 27 5 MEM_addr [26:0] $end
$var wire 32 6 IDATA_rdata [31:0] $end
$var wire 32 7 IDATA_addr [31:0] $end
$var wire 1 8 DDATA_wen $end
$var wire 32 9 DDATA_wdata [31:0] $end
$var wire 1 : DDATA_ren $end
$var wire 32 ; DDATA_rdata [31:0] $end
$var wire 32 < DDATA_addr [31:0] $end
$scope module Instruction_Memory $end
$var wire 32 = IDATA_rdata [31:0] $end
$var wire 1 1 IDATA_ren $end
$var wire 1 ' clk_i $end
$var wire 1 ( start_i $end
$var wire 32 > IDATA_addr [31:0] $end
$upscope $end
$scope module cache $end
$var wire 1 ' clk $end
$var wire 1 ( proc_start $end
$var wire 2 ? state [1:0] $end
$var wire 1 8 proc_write $end
$var wire 32 @ proc_wdata [31:0] $end
$var wire 1 2 proc_stall $end
$var wire 1 : proc_read $end
$var wire 32 A proc_rdata [31:0] $end
$var wire 32 B proc_addr [31:0] $end
$var wire 1 ! mem_write $end
$var wire 256 C mem_wdata [255:0] $end
$var wire 1 $ mem_ready $end
$var wire 1 # mem_read $end
$var wire 256 D mem_rdata [255:0] $end
$var wire 27 E mem_addr [26:0] $end
$var wire 1 F hit $end
$var wire 1 G dirty $end
$var wire 27 H cache_addr [26:0] $end
$var wire 1 I addrToMem $end
$scope module control $end
$var wire 1 I addrToMem $end
$var wire 1 ' clk $end
$var wire 1 # mem_read $end
$var wire 1 ! mem_write $end
$var wire 1 2 proc_stall $end
$var wire 1 ( proc_start $end
$var wire 1 8 proc_write $end
$var wire 1 : proc_read $end
$var wire 1 $ mem_ready $end
$var wire 1 F hit $end
$var wire 1 G dirty $end
$var reg 2 J next_state [1:0] $end
$var reg 2 K state [1:0] $end
$upscope $end
$scope module rf $end
$var wire 1 ' clk $end
$var wire 1 ( proc_start $end
$var wire 2 L state [1:0] $end
$var wire 22 M tag [21:0] $end
$var wire 1 8 proc_write $end
$var wire 32 N proc_wdata [31:0] $end
$var wire 32 O proc_addr [31:0] $end
$var wire 1 $ mem_ready $end
$var wire 256 P mem_rdata [255:0] $end
$var wire 5 Q index [4:0] $end
$var wire 5 R block_offset [4:0] $end
$var reg 27 S cache_addr [26:0] $end
$var reg 1 G dirty $end
$var reg 1 F hit $end
$var reg 256 T mem_wdata [255:0] $end
$var reg 32 U proc_rdata [31:0] $end
$var reg 32 V reg_dirty [0:31] $end
$var reg 32 W reg_dirty_next [0:31] $end
$var reg 32 X reg_valid [0:31] $end
$var reg 32 Y reg_valid_next [0:31] $end
$var integer 32 Z i [31:0] $end
$var integer 32 [ k [31:0] $end
$var integer 32 \ t [31:0] $end
$upscope $end
$upscope $end
$scope module i_RISC $end
$var wire 1 ] Branch_true $end
$var wire 32 ^ DDATA_addr [31:0] $end
$var wire 32 _ DDATA_rdata [31:0] $end
$var wire 1 : DDATA_ren $end
$var wire 32 ` DDATA_wdata [31:0] $end
$var wire 1 8 DDATA_wen $end
$var wire 32 a IDATA_addr [31:0] $end
$var wire 32 b IDATA_rdata [31:0] $end
$var wire 1 1 IDATA_ren $end
$var wire 1 ' clk_i $end
$var wire 1 c isFlush $end
$var wire 1 2 proc_stall $end
$var wire 1 ( start_i $end
$var wire 7 d opcode [6:0] $end
$var wire 1 e isSTALL $end
$var wire 2 f isFWD_R2_ID [1:0] $end
$var wire 2 g isFWD_R2_EX [1:0] $end
$var wire 2 h isFWD_R1_ID [1:0] $end
$var wire 2 i isFWD_R1_EX [1:0] $end
$var wire 7 j funct7 [6:0] $end
$var wire 3 k funct3 [2:0] $end
$var wire 32 l WriteData [31:0] $end
$var wire 5 m Reg_W_WB [4:0] $end
$var wire 5 n Reg_W_MEM [4:0] $end
$var wire 5 o Reg_W_EX [4:0] $end
$var wire 5 p Reg_W [4:0] $end
$var wire 5 q Reg_R2_EX [4:0] $end
$var wire 5 r Reg_R2 [4:0] $end
$var wire 5 s Reg_R1_EX [4:0] $end
$var wire 5 t Reg_R1 [4:0] $end
$var wire 1 u RegWrite_WB $end
$var wire 1 v RegWrite_MEM $end
$var wire 1 w RegWrite_EX $end
$var wire 1 x RegWrite $end
$var wire 32 y ReadData2_tmp [31:0] $end
$var wire 32 z ReadData2_MEM [31:0] $end
$var wire 32 { ReadData2_EX [31:0] $end
$var wire 32 | ReadData1_tmp [31:0] $end
$var wire 32 } ReadData1_EX [31:0] $end
$var wire 8 ~ PCnext_ID [7:0] $end
$var wire 32 !" PCnext [31:0] $end
$var wire 32 "" PCin [31:0] $end
$var wire 8 #" PCadder2 [7:0] $end
$var wire 32 $" PCadder1 [31:0] $end
$var wire 1 %" MemWrite_MEM $end
$var wire 1 &" MemWrite_EX $end
$var wire 1 '" MemWrite $end
$var wire 1 (" MemToReg_WB $end
$var wire 1 )" MemToReg_MEM $end
$var wire 1 *" MemToReg_EX $end
$var wire 1 +" MemToReg $end
$var wire 1 ," MemRead_MEM $end
$var wire 1 -" MemRead_EX $end
$var wire 1 ." MemRead $end
$var wire 12 /" Imm_S_EX [11:0] $end
$var wire 12 0" Imm_SB [11:0] $end
$var wire 12 1" Imm_S [11:0] $end
$var wire 12 2" Imm_I_EX [11:0] $end
$var wire 12 3" Imm_I [11:0] $end
$var wire 32 4" IDATA_rdata_ID [31:0] $end
$var wire 32 5" DDATA_rdata_WB [31:0] $end
$var wire 1 6" Branch $end
$var wire 32 7" ALUresult_WB [31:0] $end
$var wire 32 8" ALUresult_MEM [31:0] $end
$var wire 32 9" ALUresult [31:0] $end
$var wire 3 :" ALUctrl_EX [2:0] $end
$var wire 3 ;" ALUctrl [2:0] $end
$var wire 2 <" ALUSrc_EX [1:0] $end
$var wire 2 =" ALUSrc [1:0] $end
$var reg 32 >" ALUin1 [31:0] $end
$var reg 32 ?" ALUin2 [31:0] $end
$var reg 32 @" ALUin2_reg [31:0] $end
$var reg 32 A" ReadData1 [31:0] $end
$var reg 32 B" ReadData2 [31:0] $end
$scope module alu $end
$var wire 3 C" ALUctrl [2:0] $end
$var wire 32 D" ALUin1 [31:0] $end
$var wire 32 E" ALUin2 [31:0] $end
$var wire 32 F" and_result [31:0] $end
$var wire 32 G" or_result [31:0] $end
$var wire 32 H" sub_result [31:0] $end
$var wire 32 I" mul_result [31:0] $end
$var wire 1 J" carry $end
$var wire 32 K" add_result [31:0] $end
$var reg 32 L" ALUresult [31:0] $end
$upscope $end
$scope module control $end
$var wire 3 M" funct3 [2:0] $end
$var wire 7 N" funct7 [6:0] $end
$var wire 7 O" opcode [6:0] $end
$var wire 10 P" ctrl_signals [9:0] $end
$var reg 2 Q" ALUSrc [1:0] $end
$var reg 3 R" ALUctrl [2:0] $end
$var reg 1 S" Branch $end
$var reg 1 T" MemRead $end
$var reg 1 U" MemToReg $end
$var reg 1 V" MemWrite $end
$var reg 1 W" RegWrite $end
$upscope $end
$scope module fwd_unit_ex $end
$var wire 1 v RegWrite_MEM $end
$var wire 1 u RegWrite_WB $end
$var wire 5 X" Reg_R1_EX [4:0] $end
$var wire 5 Y" Reg_R2_EX [4:0] $end
$var wire 5 Z" Reg_W_MEM [4:0] $end
$var wire 5 [" Reg_W_WB [4:0] $end
$var reg 2 \" isFWD_R1_EX [1:0] $end
$var reg 2 ]" isFWD_R2_EX [1:0] $end
$upscope $end
$scope module fwd_unit_id $end
$var wire 1 6" Branch $end
$var wire 1 v RegWrite_MEM $end
$var wire 1 u RegWrite_WB $end
$var wire 5 ^" Reg_R1 [4:0] $end
$var wire 5 _" Reg_R2 [4:0] $end
$var wire 5 `" Reg_W_MEM [4:0] $end
$var wire 5 a" Reg_W_WB [4:0] $end
$var reg 2 b" isFWD_R1_ID [1:0] $end
$var reg 2 c" isFWD_R2_ID [1:0] $end
$upscope $end
$scope module pc $end
$var wire 32 d" PCin [31:0] $end
$var wire 1 ' clk_i $end
$var wire 1 2 proc_stall $end
$var wire 1 ( start_i $end
$var wire 1 e isSTALL $end
$var reg 32 e" PCnext [31:0] $end
$upscope $end
$scope module r0 $end
$var wire 32 f" IDATA_rdata [31:0] $end
$var wire 32 g" PCnext [31:0] $end
$var wire 1 ' clk_i $end
$var wire 1 c isFlush $end
$var wire 1 2 proc_stall $end
$var wire 1 ( start_i $end
$var wire 1 e isSTALL $end
$var reg 32 h" IDATA_rdata_ID [31:0] $end
$var reg 8 i" PCnext_ID [7:0] $end
$upscope $end
$scope module r1 $end
$var wire 112 j" ID_signals [111:0] $end
$var wire 1 ' clk_i $end
$var wire 1 2 proc_stall $end
$var wire 1 ( start_i $end
$var wire 1 e isSTALL $end
$var reg 112 k" EX_signals [111:0] $end
$upscope $end
$scope module r2 $end
$var wire 73 l" EX_signals [72:0] $end
$var wire 1 ' clk_i $end
$var wire 1 2 proc_stall $end
$var wire 1 ( start_i $end
$var reg 73 m" MEM_signals [72:0] $end
$upscope $end
$scope module r3 $end
$var wire 71 n" MEM_signals [70:0] $end
$var wire 1 ' clk_i $end
$var wire 1 2 proc_stall $end
$var wire 1 ( start_i $end
$var reg 71 o" WB_signals [70:0] $end
$upscope $end
$scope module rf $end
$var wire 32 p" ReadData1 [31:0] $end
$var wire 32 q" ReadData2 [31:0] $end
$var wire 1 u RegWrite $end
$var wire 5 r" Reg_R1 [4:0] $end
$var wire 5 s" Reg_R2 [4:0] $end
$var wire 5 t" Reg_W [4:0] $end
$var wire 32 u" WriteData [31:0] $end
$var wire 1 ' clk_i $end
$var wire 1 ( start_i $end
$upscope $end
$scope module stall_unit $end
$var wire 1 6" Branch $end
$var wire 1 -" MemRead_EX $end
$var wire 1 ," MemRead_MEM $end
$var wire 1 w RegWrite_EX $end
$var wire 5 v" Reg_R1 [4:0] $end
$var wire 5 w" Reg_R2 [4:0] $end
$var wire 5 x" Reg_W_EX [4:0] $end
$var wire 5 y" Reg_W_MEM [4:0] $end
$var reg 1 e isSTALL $end
$upscope $end
$upscope $end
$upscope $end
$scope module Data_Memory $end
$var wire 27 z" DDATA_addr [26:0] $end
$var wire 256 {" DDATA_rdata [255:0] $end
$var wire 1 $ DDATA_ready $end
$var wire 1 # DDATA_ren $end
$var wire 256 |" DDATA_wdata [255:0] $end
$var wire 1 ! DDATA_wen $end
$var wire 1 ' clk_i $end
$var wire 1 ( start_i $end
$var reg 4 }" count [3:0] $end
$var reg 256 ~" data [255:0] $end
$var reg 2 !# state [1:0] $end
$upscope $end
$upscope $end
$enddefinitions $end
#0
$dumpvars
bx !#
bx ~"
bx }"
b0 |"
bx {"
b0 z"
b0 y"
b0 x"
b0 w"
b0 v"
b0 u"
b0 t"
b0 s"
b0 r"
b0 q"
b0 p"
b0 o"
b0 n"
b0 m"
b0 l"
b0 k"
b10001 j"
b0 i"
b0 h"
b0 g"
b10000010011 f"
b0 e"
b100 d"
b0 c"
b0 b"
b0 a"
b0 `"
b0 _"
b0 ^"
b0 ]"
b0 \"
b0 ["
b0 Z"
b0 Y"
b0 X"
0W"
0V"
0U"
0T"
0S"
b10 R"
b1 Q"
b1010 P"
b0 O"
b0 N"
b0 M"
b0 L"
b0 K"
0J"
b0 I"
b0 H"
b0 G"
b0 F"
b0 E"
b0 D"
b0 C"
b0 B"
b0 A"
b0 @"
b0 ?"
b0 >"
b1 ="
b0 <"
b10 ;"
b0 :"
b0 9"
b0 8"
b0 7"
06"
b0 5"
b0 4"
b0 3"
b0 2"
b0 1"
b0 0"
b0 /"
0."
0-"
0,"
0+"
0*"
0)"
0("
0'"
0&"
0%"
b100 $"
b0 #"
b100 ""
b0 !"
b0 ~
b0 }
b0 |
b0 {
b0 z
b0 y
0x
0w
0v
0u
b0 t
b0 s
b0 r
b0 q
b0 p
b0 o
b0 n
b0 m
b0 l
b0 k
b0 j
b0 i
b0 h
b0 g
b0 f
0e
b0 d
0c
b10000010011 b
b0 a
b0 `
b0 _
b0 ^
0]
bx \
b100000 [
b100000000 Z
b0 Y
b0 X
b0 W
b0 V
b0 U
b0 T
b0 S
b0 R
b0 Q
bx P
b0 O
b0 N
b0 M
b1 L
b1 K
b1 J
1I
b0 H
0G
0F
b0 E
bx D
b0 C
b0 B
b0 A
b0 @
b1 ?
b0 >
b10000010011 =
b0 <
b0 ;
0:
b0 9
08
b0 7
b10000010011 6
b0 5
bx 4
b0 3
02
11
b101 0
b11 /
b1000000000 .
b1 -
bx ,
bx +
x*
bx )
0(
0'
b0 &
bx %
x$
1#
b0 "
0!
$end
#12
1(
#25
1x
b1000 #"
b10001010 P"
1W"
b100000 [
b1000 ""
b1000 d"
b100000000010000000100011 6
b100000000010000000100011 =
b100000000010000000100011 b
b100000000010000000100011 f"
b100 0"
b1000 1"
b1000000000000000000000000000000000000000000000000000000000000000000000000000001000000000000000000000001000010001 j"
b1000 p
b10011 d
b10011 O"
b1 <"
b10 :"
b10 C"
0$
b1000 $"
b100 7
b100 >
b100 a
b100 !"
b100 e"
b100 g"
b10000010011 4"
b10000010011 h"
b10001 k"
b0 }"
b0 !#
b100000000 Z
b10 -
0*
1'
#50
0'
#75
b10 ="
0x
1'"
b10 Q"
0W"
b1000010010 P"
1V"
b1000 /"
b1000 o
b1000 x"
b1000010000000000000000000000000000000000000000000000000000000000000000000 l"
1w
b100 #"
b0 0"
b0 1"
b1000 3"
b1000 r
b1000 _"
b1000 s"
b1000 w"
b10 k
b10 M"
b10000000000000000000000000000000000000000000000000000000000000000000000100000000000000001000000000000000010010 j"
b0 p
b100011 d
b100011 O"
b1100 ""
b1100 d"
b10001000100000000010000010011 6
b10001000100000000010000010011 =
b10001000100000000010000010011 b
b10001000100000000010000010011 f"
b1 !#
b1000000000000000000000000000000000000000000000000000000000000000000000000000001000000000000000000000001000010001 k"
b100 ~
b100 i"
b100000000010000000100011 4"
b100000000010000000100011 h"
b1100 $"
b1000 7
b1000 >
b1000 a
b1000 !"
b1000 e"
b1000 g"
b11 -
b100000000 Z
1'
#100
0'
#125
1x
0'"
b1 ="
1W"
0V"
b10001010 P"
b1 Q"
b10 g
b10 ]"
b10000 ""
b10000 d"
b100000000010001000100011 6
b100000000010001000100011 =
b100000000010001000100011 b
b100000000010001000100011 f"
b10000 #"
b10000100 0"
b100001000 1"
b100010001 3"
b1000 j
b1000 N"
b10001 r
b10001 _"
b10001 s"
b10001 w"
b0 k
b0 M"
b1000000000000000000000000000000000000000000000000000000000000000000000001000101000000100010001000100001000010001 j"
b1000 p
b10011 d
b10011 O"
b10 <"
b0 /"
b1000 2"
b0 o
b0 x"
b1000 q
b1000 Y"
1&"
b100000000000000000000000000000000000000000000000000000000000000000000000 l"
0w
b1000 n
b1000 Z"
b1000 `"
b1000 y"
b10010000000000000000000000000000000000000000000000000000000000000000000 n"
1v
b10000 $"
b1100 7
b1100 >
b1100 a
b1100 !"
b1100 e"
b1100 g"
b1000 ~
b1000 i"
b10001000100000000010000010011 4"
b10001000100000000010000010011 h"
b10000000000000000000000000000000000000000000000000000000000000000000000100000000000000001000000000000000010010 k"
b1000010000000000000000000000000000000000000000000000000000000000000000000 m"
b1 }"
b100000000 Z
b100 -
1'
#150
0'
#175
12
b100010001 G"
b100010001 9"
b100010001 L"
b11111111111111111111111011101111 H"
1J"
b10 ="
0x
1'"
b11 J
b100000 [
b100010001 K"
b100010001 ?"
b100010001 E"
b0 g
b0 ]"
b10 f
b10 c"
b10 Q"
0W"
b1000010010 P"
1V"
b1000 m
b1000 ["
b1000 a"
b1000 t"
1u
b0 n
b0 Z"
b0 `"
b0 y"
18
1%"
b0 n"
0v
b1 <"
b100001000 /"
b100010001 2"
b1000 o
b1000 x"
b10001 q
b10001 Y"
0&"
b1000010000000000000000000000000010001000100000000000000000000000000000000 l"
1w
b10 0"
b100 1"
b1000 3"
b0 j
b0 N"
b1000 r
b1000 _"
b1000 s"
b1000 w"
b10 k
b10 M"
b10000000000000000000000000000000000000000000000000000000000000000000000100000100000000001000000000000100010010 j"
b100 p
b100011 d
b100011 O"
b10100 ""
b10100 d"
b100010001000000000010000010011 6
b100010001000000000010000010011 =
b100010001000000000010000010011 b
b100010001000000000010000010011 f"
b10 }"
b10010000000000000000000000000000000000000000000000000000000000000000000 o"
b100000000000000000000000000000000000000000000000000000000000000000000000 m"
b1000000000000000000000000000000000000000000000000000000000000000000000001000101000000100010001000100001000010001 k"
b1100 ~
b1100 i"
b100000000010001000100011 4"
b100000000010001000100011 h"
b10100 $"
b10000 7
b10000 >
b10000 a
b10000 !"
b10000 e"
b10000 g"
b101 -
b100000000 Z
1'
#200
0'
#225
b100000 [
b11 ?
b11 K
b11 L
b11 }"
b100000000 Z
b110 -
1*
1'
#250
0'
#275
b100 }"
b111 -
b100000000 Z
1'
#300
0'
#325
b101 }"
b100000000 Z
b1000 -
1'
#350
0'
#375
b110 }"
b1001 -
b100000000 Z
1'
#400
0'
#425
b111 }"
b100000000 Z
b1010 -
1'
#450
0'
#475
b100000 [
b101 %
b101 4
b101 D
b101 P
b101 {"
b101 ~"
b1000 }"
b1011 -
b100000000 Z
1'
#500
0'
#525
b1 J
b10000000000000000000000000000000 Y
b100000 [
1$
b1001 }"
b100000000 Z
b1100 -
1'
#550
0'
#575
02
b10000000000000000000000000000000 W
b100000000 \
0$
b10100000000000000000000000000000000 n"
b101 ;
b101 A
b101 U
b101 _
b101 "
b101 3
b101 C
b101 T
b101 |"
1F
b1 J
0#
b100000 [
b0 !#
b0 }"
b10000000000000000000000000000000 X
b1 ?
b1 K
b1 L
b1101 -
b100000000 Z
1'
#600
0'
#625
1#
1x
0'"
b1 ="
b1000 H
b1000 S
0F
b1000 &
b1000 5
b1000 E
b1000 z"
b100 G"
b100 9"
b100 L"
b11111111111111111111111111111100 H"
1W"
0V"
b10001010 P"
b1 Q"
b1000 Q
b10001 R
b100 K"
b100 ?"
b100 E"
b100010001 @"
b10 g
b10 ]"
b0 f
b0 c"
b11000 ""
b11000 d"
b100000000010010000100011 6
b100000000010010000100011 =
b100000000010010000100011 b
b100000000010010000100011 f"
b111000 #"
b100010100 0"
b1000101000 1"
b1000100010 3"
b10001 j
b10001 N"
b10 r
b10 _"
b10 s"
b10 w"
b0 k
b0 M"
b1000000000000000000000000000000000000000000000000000000000000000000000000001001000001000100010001000101000010001 j"
b1000 p
b10011 d
b10011 O"
b10 <"
b100 /"
b1000 2"
b100 o
b100 x"
b1000 q
b1000 Y"
1&"
b100001000000000000000000000000000000010000000000000000000000000100010001 l"
0w
b100010001 <
b100010001 B
b100010001 O
b100010001 ^
b100010001 8"
b1000 n
b1000 Z"
b1000 `"
b1000 y"
08
0%"
1v
b101 5"
b0 m
b0 ["
b0 a"
b0 t"
0u
b100000000 \
b100000 [
b10010000000000000000000000000000000000000000000000000000000000100010001 n"
b0 ;
b0 A
b0 U
b0 _
b0 "
b0 3
b0 C
b0 T
b0 |"
0G
b11000 $"
b10100 7
b10100 >
b10100 a
b10100 !"
b10100 e"
b10100 g"
b10000 ~
b10000 i"
b100010001000000000010000010011 4"
b100010001000000000010000010011 h"
b10000000000000000000000000000000000000000000000000000000000000000000000100000100000000001000000000000100010010 k"
b1000010000000000000000000000000010001000100000000000000000000000000000000 m"
b10100000000000000000000000000000000 o"
b10000000000000000000000000000000 V
b100000000 Z
b1110 -
0*
1'
#650
0'
#675
1I
0#
0!
02
b100010001 B"
b100000000 \
b0 H
b0 S
1G
1F
b0 &
b0 5
b0 E
b0 z"
b1000100010 G"
b1000100010 9"
b1000100010 L"
b11111111111111111111110111011110 H"
b10 ="
0x
1'"
b100010001 l
b100010001 u"
b0 Q
b100 R
b1 J
b100000 [
b1000100010 K"
b1000100010 ?"
b1000100010 E"
b0 @"
b0 g
b0 ]"
b10 f
b10 c"
b10 Q"
0W"
b1000010010 P"
1V"
b100010001 7"
b0 5"
b1000 m
b1000 ["
b1000 a"
b1000 t"
1u
b100010001 9
b100010001 @
b100010001 N
b100010001 `
b100010001 z
b100 <
b100 B
b100 O
b100 ^
b100 8"
b100 n
b100 Z"
b100 `"
b100 y"
18
1%"
b1000000000000000000000000000000000000000000000000000000000000000100 n"
0v
b1 <"
b1000101000 /"
b1000100010 2"
b1000 o
b1000 x"
b10 q
b10 Y"
0&"
b1000010000000000000000000000000100010001000000000000000000000000000000000 l"
1w
b11100 #"
b100 0"
b1000 1"
b1000 3"
b0 j
b0 N"
b10000000000000000000000000000000000000000000000000000000100010001000000100001000000000001000000000001000010010 j"
b1000 r
b1000 _"
b1000 s"
b1000 w"
b10 k
b10 M"
b100011 d
b100011 O"
b11100 ""
b11100 d"
b110011001100000000010000010011 6
b110011001100000000010000010011 =
b110011001100000000010000010011 b
b110011001100000000010000010011 f"
b1 !#
b10010000000000000000000000000000000000000000000000000000000000100010001 o"
b100001000000000000000000000000000000010000000000000000000000000100010001 m"
b1000000000000000000000000000000000000000000000000000000000000000000000000001001000001000100010001000101000010001 k"
b10100 ~
b10100 i"
b100000000010010000100011 4"
b100000000010010000100011 h"
b11100 $"
b11000 7
b11000 >
b11000 a
b11000 !"
b11000 e"
b11000 g"
b1111 -
b100000000 Z
1'
#700
0'
#725
1#
1x
0'"
b1 ="
b10001 H
b10001 S
0G
0F
b10001 &
b10001 5
b10001 E
b10001 z"
b1000 G"
b1000 9"
b1000 L"
b11111111111111111111111111111000 H"
b0 B"
1W"
0V"
b10001010 P"
b1 Q"
b10001 Q
b10 R
b1000 K"
b1000 ?"
b1000 E"
b1000100010 @"
b100 l
b100 u"
b10 g
b10 ]"
b0 f
b0 c"
b100000 ""
b100000 d"
b100000000010011000100011 6
b100000000010011000100011 =
b100000000010011000100011 b
b100000000010011000100011 f"
b1000000 #"
b110010100 0"
b1100101000 1"
b1100110011 3"
b11001 j
b11001 N"
b1000000000000000000000000000000000000000000000000000000000000000000000001001101000001100110011001100101000010001 j"
b10011 r
b10011 _"
b10011 s"
b10011 w"
b0 k
b0 M"
b10011 d
b10011 O"
b10 <"
b1000 /"
b1000 2"
b1000 q
b1000 Y"
b100010001 {
1&"
b100010000000000000000000000000000000100000000000000000000000001000100010 l"
0w
b0 9
b0 @
b0 N
b0 `
b0 z
b1000100010 <
b1000100010 B
b1000100010 O
b1000100010 ^
b1000100010 8"
b1000 n
b1000 Z"
b1000 `"
b1000 y"
08
0%"
1v
b100 7"
b100 m
b100 ["
b100 a"
b100 t"
0u
b100000000 \
b100000 [
b10010000000000000000000000000010001000100000000000000000000001000100010 n"
b100010001 ;
b100010001 A
b100010001 U
b100010001 _
b0 "
b0 3
b0 C
b0 T
b0 |"
b100000 $"
b11100 7
b11100 >
b11100 a
b11100 !"
b11100 e"
b11100 g"
b11000 ~
b11000 i"
b110011001100000000010000010011 4"
b110011001100000000010000010011 h"
b0 y
b0 q"
b10000000000000000000000000000000000000000000000000000000100010001000000100001000000000001000000000001000010010 k"
b1000010000000000000000000000000100010001000000000000000000000000000000000 m"
b1000000000000000000000000000000000000000000000000000000000000000100 o"
b1 }"
b100000000 Z
b10000 -
1'
#750
0'
#775
1I
0#
0!
02
b100000000 \
b0 ;
b0 A
b0 U
b0 _
b0 H
b0 S
b10001000100000000000000000000000000000000 "
b10001000100000000000000000000000000000000 3
b10001000100000000000000000000000000000000 C
b10001000100000000000000000000000000000000 T
b10001000100000000000000000000000000000000 |"
1G
1F
b0 &
b0 5
b0 E
b0 z"
b1100110011 G"
b1100110011 9"
b1100110011 L"
b11111111111111111111110011001101 H"
b10 ="
0x
1'"
b1000100010 l
b1000100010 u"
b0 Q
b1000 R
b1 J
b100000 [
b0 g
b0 ]"
b1100110011 K"
b1100110011 ?"
b1100110011 E"
b0 @"
b10 f
b10 c"
b1000100010 B"
b10 Q"
0W"
b1000010010 P"
1V"
b1000100010 7"
b100010001 5"
b1000 m
b1000 ["
b1000 a"
b1000 t"
1u
b1000100010 9
b1000100010 @
b1000100010 N
b1000100010 `
b1000100010 z
b1000 <
b1000 B
b1000 O
b1000 ^
b1000 8"
18
1%"
b10000000000000000000000000000000000000000000000000000000000000001000 n"
0v
b1 <"
b1100101000 /"
b1100110011 2"
b10011 q
b10011 Y"
b0 {
0&"
b1000010000000000000000000000000110011001100000000000000000000000000000000 l"
1w
b101000 #"
b110 0"
b1100 1"
b1000 3"
b0 j
b0 N"
b100010001 y
b100010001 q"
b1000 r
b1000 _"
b1000 s"
b1000 w"
b10 k
b10 M"
b10000000000000000000000000000000000000000000000000000001000100010000000100001100000000001000000000001100010010 j"
b1100 p
b100011 d
b100011 O"
b100100 ""
b100100 d"
b1000100010000000000010000010011 6
b1000100010000000000010000010011 =
b1000100010000000000010000010011 b
b1000100010000000000010000010011 f"
b10 }"
b10010000000000000000000000000010001000100000000000000000000001000100010 o"
b100010000000000000000000000000000000100000000000000000000000001000100010 m"
b1000000000000000000000000000000000000000000000000000000000000000000000001001101000001100110011001100101000010001 k"
b11100 ~
b11100 i"
b100000000010011000100011 4"
b100000000010011000100011 h"
b100100 $"
b100000 7
b100000 >
b100000 a
b100000 !"
b100000 e"
b100000 g"
b10001 -
b100000000 Z
1'
#800
0'
#825
1#
1x
0'"
b1 ="
b11001 H
b11001 S
0G
0F
b11001 &
b11001 5
b11001 E
b11001 z"
b1100 G"
b1100 9"
b1100 L"
b11111111111111111111111111110100 H"
b0 B"
1W"
0V"
b10001010 P"
b1 Q"
b11001 Q
b10011 R
b1100 K"
b1100 ?"
b1100 E"
b1100110011 @"
b1000 l
b1000 u"
b10 g
b10 ]"
b0 f
b0 c"
b101000 ""
b101000 d"
b100000000010100000100011 6
b100000000010100000100011 =
b100000000010100000100011 b
b100000000010100000100011 f"
b1101000 #"
b1000100100 0"
b10001001000 1"
b10001000100 3"
b100010 j
b100010 N"
b100 r
b100 _"
b100 s"
b100 w"
b0 k
b0 M"
b1000000000000000000000000000000000000000000000000000000000000000000000000010001000010001000100010001001000010001 j"
b1000 p
b10011 d
b10011 O"
b10 <"
b1100 /"
b1000 2"
b1100 o
b1100 x"
b1000 q
b1000 Y"
b1000100010 {
1&"
b100011000000000000000000000000000000110000000000000000000000001100110011 l"
0w
b0 9
b0 @
b0 N
b0 `
b0 z
b1100110011 <
b1100110011 B
b1100110011 O
b1100110011 ^
b1100110011 8"
08
0%"
1v
b1000 7"
b0 5"
0u
b100000000 \
b100000 [
b10010000000000000000000000000100010001000000000000000000000001100110011 n"
b1000100010 ;
b1000100010 A
b1000100010 U
b1000100010 _
b0 "
b0 3
b0 C
b0 T
b0 |"
b101000 $"
b100100 7
b100100 >
b100100 a
b100100 !"
b100100 e"
b100100 g"
b100000 ~
b100000 i"
b1000100010000000000010000010011 4"
b1000100010000000000010000010011 h"
b0 y
b0 q"
b10000000000000000000000000000000000000000000000000000001000100010000000100001100000000001000000000001100010010 k"
b1000010000000000000000000000000110011001100000000000000000000000000000000 m"
b10000000000000000000000000000000000000000000000000000000000000001000 o"
b11 }"
b100000000 Z
b10010 -
1'
#850
0'
